0, -(+) -> 0, +, U
0, -() -> 0, F, D
0, F(+) -> 0,+,D
0, +(L) -> 0, L, R
0, +(R) -> 0, R, R
0, +() -> 1, M, R
1, +() -> 1, S, L
1, +(S) -> 1, S, L
1, +(M) -> 1, M, L
1, +(R) -> 2, R, L
2, +(L), -> 2, L, D
2, L(1)  -> 2, 1, R
2, L(0)  -> 2, 0, R
2, L() -> 3, -, L
3, L(0) -> 4, -, U
3, L(1) -> 10, -, U
3, L() -> 4, -, U
4, +(L) -> 4, L, R
4, +(R) -> 4, R, D
4, R(1)  -> 4, 1, R
4, R(0)  -> 4, 0, R
4, R() -> 5, -, L
5, R(1) -> 6, -, U
5, R(0) -> 8, -, U
5, R() -> 30, -, U
6, +(R) -> 6, R, R
6, +(M) -> 6, M, D
6, M() -> 7, -, U
6, M(1) -> 9, -, U
7, +(M) -> 7, M, R
7, +(S) -> 7, S, D
7, S(1) -> 7, 1, L
7, S(0) -> 7, 0, L
7, S() -> 1, 1, U
8, +(R) -> 8, R, R
8, +(M) -> 8, M, D
8, M(1) -> 7, -, U
8, M() -> 9, -, U
9, +(M) -> 9, M, R
9, +(S) -> 9, S, D
9, S(1) -> 9, 1, L
9, S(0) -> 9, 0, L
9, S() -> 1, 0, U
10, +(L) -> 10, L, R
10, +(R) -> 10, R, D
10, R(1)  -> 10, 1, R
10, R(0)  -> 10, 0, R
10, R() -> 11, -, L
11, R(0) -> 6, -, U
11, R(1) -> 12, -, U
12, +(R) -> 12, R, R
12, +(M) -> 12, M, D
12, M() -> 9, 1, U
12, M(1) -> 7, 1, U
30, +(L) -> 30, L, R
30, +(R) -> 30, R, R
30, +(M) -> 30, M, D
30, M() -> 31, -, U
30, M(1) -> 32, -, U
31, +(M) -> 31, -, U
31, F(+) -> 34, +, U
32, +(M) -> 32, -, R
32, +(S) -> 32, S, D
32, S(1) -> 32, 1, L
32, S(0) -> 32, 0, L
32, S() -> 33, 1, U
33, +(S) -> 33, S, U
33, F(+) -> 34, +, U
34, -(F) -> 34, -, D
34, -(+) -> #
