S -> s(A,B,C)
B -> b(A,B,c)
B -> b(D,c)
X1(A,A,D) -> X1(A,C,D)
X1(C,D,c) -> X1(C,d,c)
X1(A,C,d) -> X1(A,e,d)
X1(c,C) -> X1(c,c)
X1(c,X2(C)) -> X1(c,X2(c))
X1(X2(c),C) -> X1(X2(c),c)
X1(A,D,c) -> X1(A,d,c)
X1(X2(A),D,c) -> X1(X2(A),d,c)
X1(X2(A,D),c) -> X1(X2(A,d),c)
X1(A,X2(D,c)) -> X1(A,X2(d,c))
X1(A,D,X2(c)) -> X1(A,d,X2(c))
A -> a